<svg width="24" height="25" viewBox="0 0 24 25" fill="black" xmlns="http://www.w3.org/2000/svg">
    <path d="M3.83496 19.3043L3.90057 19.4895C3.89217 19.4683 3.86816 19.4035 3.83496 19.3043ZM6.43124 15.1066C6.54645 14.1113 6.93769 13.5541 7.67497 12.9828C8.72989 12.2091 10.0476 12.6468 10.0476 12.6468V10.0505C10.368 10.042 10.6885 10.0618 11.0053 10.1097V13.4509C11.0053 13.4509 9.68799 13.0132 8.63308 13.7873C7.8962 14.3582 7.50416 14.9158 7.38934 15.9111C7.38574 16.4516 7.48295 17.1581 7.9306 17.7689C7.81992 17.7097 7.70711 17.6423 7.59217 17.5665C6.60606 16.8756 6.42644 15.8391 6.43124 15.1066ZM16.4463 5.24998C15.7206 4.42029 15.4462 3.5826 15.347 2.99414H16.2599C16.2599 2.99414 16.0779 4.53711 17.4044 6.05447L17.4228 6.07487C17.0653 5.84023 16.7374 5.56326 16.4463 5.24998V5.24998ZM20.844 7.60224V10.8762C20.844 10.8762 19.6791 10.8286 18.817 10.5998C17.6132 10.2797 16.8396 9.78887 16.8396 9.78887C16.8396 9.78887 16.3051 9.43884 16.2619 9.41443V16.1752C16.2619 16.5516 16.1631 17.4917 15.8619 18.2758C15.4686 19.3015 14.8617 19.9748 14.7501 20.1124C14.7501 20.1124 14.0121 21.0225 12.7099 21.6354C11.5362 22.1882 10.5057 22.1742 10.1976 22.1882C10.1976 22.1882 8.41625 22.2618 6.81328 21.1749C6.46665 20.9353 6.14308 20.664 5.84678 20.3644L5.85478 20.3704C7.45815 21.4573 9.23914 21.3837 9.23914 21.3837C9.54758 21.3697 10.5781 21.3837 11.7514 20.8309C13.0524 20.218 13.7916 19.3079 13.7916 19.3079C13.902 19.1703 14.5117 18.497 14.9034 17.4709C15.2038 16.6872 15.3034 15.7467 15.3034 15.3703V8.61035C15.3466 8.63515 15.8807 8.98519 15.8807 8.98519C15.8807 8.98519 16.6547 9.47644 17.8585 9.79607C18.721 10.0249 19.8855 10.0725 19.8855 10.0725V7.50703C20.2839 7.60024 20.6236 7.62544 20.844 7.60224V7.60224Z" fill="black"/>
    <path d="M19.8858 7.50751V10.0722C19.8858 10.0722 18.7212 10.0246 17.8587 9.79576C16.655 9.47573 15.8809 8.98487 15.8809 8.98487C15.8809 8.98487 15.3469 8.63484 15.3037 8.61003V15.3716C15.3037 15.748 15.2048 16.6885 14.9036 17.4722C14.5104 18.4983 13.9035 19.1716 13.7919 19.3092C13.7919 19.3092 13.0534 20.2193 11.7517 20.8322C10.5783 21.385 9.54784 21.371 9.23941 21.385C9.23941 21.385 7.45841 21.4586 5.85504 20.3717L5.84704 20.3657C5.67776 20.1947 5.51841 20.0141 5.36979 19.8248C4.85813 19.174 4.5445 18.4043 4.46569 18.1847C4.46556 18.1837 4.46556 18.1828 4.46569 18.1819C4.33888 17.8002 4.07245 16.8837 4.10885 15.996C4.17326 14.4299 4.70132 13.4686 4.84093 13.2277C5.21069 12.571 5.69161 11.9834 6.26229 11.4911C6.76587 11.0663 7.33667 10.7284 7.95127 10.491C8.61567 10.2124 9.32713 10.063 10.0475 10.051V12.6473C10.0475 12.6473 8.72975 12.2112 7.67524 12.9833C6.93796 13.5546 6.54672 14.1118 6.4315 15.1071C6.4267 15.8396 6.60632 16.8761 7.59163 17.5674C7.70657 17.6434 7.81939 17.7109 7.93006 17.7698C8.1022 18.0033 8.31171 18.2067 8.55013 18.3719C9.51263 19.0076 10.3191 19.052 11.3504 18.6391C12.0381 18.3631 12.5558 17.741 12.7958 17.0517C12.9466 16.6213 12.9446 16.188 12.9446 15.74V2.99463H15.3449C15.4441 3.58309 15.7185 4.42078 16.4442 5.25047C16.7353 5.56375 17.0632 5.84072 17.4207 6.07536C17.5263 6.18937 18.0664 6.75303 18.7596 7.09907C19.1181 7.27794 19.496 7.41499 19.8858 7.50751V7.50751Z" fill="white"/>
    <path d="M3.51074 17.3872V17.3892L3.56995 17.5576C3.56315 17.538 3.54115 17.4784 3.51074 17.3872Z" fill="black"/>
    <path d="M7.95154 10.4907C7.33694 10.728 6.76614 11.066 6.26256 11.4908C5.6917 11.9842 5.2109 12.573 4.8416 13.231C4.70199 13.471 4.17393 14.4331 4.10952 15.9993C4.07312 16.887 4.33955 17.8035 4.46636 18.1851C4.46623 18.1861 4.46623 18.187 4.46636 18.1879C4.54637 18.4056 4.8588 19.1753 5.37046 19.8281C5.51908 20.0174 5.67843 20.198 5.84771 20.369C5.30533 19.9939 4.82161 19.5403 4.41236 19.0232C3.9051 18.378 3.59227 17.6163 3.51066 17.3915C3.51056 17.3899 3.51056 17.3883 3.51066 17.3867V17.3839C3.38345 17.0026 3.11622 16.0857 3.15342 15.1968C3.21783 13.6307 3.74588 12.6694 3.8855 12.4285C4.25469 11.7705 4.7355 11.1816 5.30645 10.6883C5.80994 10.2634 6.38076 9.92539 6.99543 9.68823C7.37884 9.52916 7.77825 9.4118 8.18676 9.3382C8.80241 9.23073 9.4312 9.22141 10.0498 9.31059V10.0507C9.32872 10.0625 8.61656 10.2118 7.95154 10.4907V10.4907Z" fill="black"/>
    <path d="M15.3471 2.99434H12.9468V15.7401C12.9468 16.1882 12.9468 16.6202 12.798 17.0519C12.5556 17.7407 12.0399 18.3628 11.3526 18.6388C10.3209 19.0533 9.51443 19.0073 8.55233 18.3716C8.31349 18.2072 8.10345 18.0044 7.93066 17.7715C8.75035 18.2088 9.48403 18.2012 10.3929 17.8363C11.0798 17.5603 11.5963 16.9382 11.8379 16.249C11.9891 15.8185 11.9871 15.3853 11.9871 14.9376V2.18945H15.3015C15.3015 2.18945 15.2643 2.50629 15.3471 2.99434ZM19.886 6.79795V7.50722C19.4968 7.41455 19.1197 7.27751 18.7618 7.09878C18.0686 6.75274 17.5285 6.18908 17.4229 6.07507C17.5454 6.15553 17.6726 6.22873 17.8037 6.29429C18.6466 6.71514 19.4767 6.84075 19.886 6.79795V6.79795Z" fill="black"/>
</svg>
